{
	"methods": [{
		"operationType": null,
		"name": "sampleJavaOperation",
		"parameters": [{
			"name": "inputvalue",
			"type": "java.lang.String"
		}],
		"returnType": "java.lang.String"
	}],
	"serviceURL": "testservice.json",
	"serviceType": "JSON-RPC"
}